…
``` r
site_weights <- 
  past %>% as_tibble() %>% 
  group_by(siteID) %>% 
  summarise(richness_share = sum(richness, na.rm=TRUE),
            abundance_share = sum(abundance, na.rm=TRUE)) %>% 
  mutate(richness_share = richness_share / sum(richness_share),
         abundance_share = abundance_share / sum(abundance_share))
site_weights
```

    ## # A tibble: 47 × 3
    ##    siteID richness_share abundance_share
    ##    <chr>           <dbl>           <dbl>
    ##  1 ABBY          0.0224          0.0183 
    ##  2 BARR          0.00157         0.00647
    ##  3 BART          0.0362          0.0628 
    ##  4 BLAN          0.0476          0.0313 
    ##  5 BONA          0.00250         0.00170
    ##  6 CLBJ          0.0121          0.00391
    ##  7 CPER          0.0463          0.0650 
    ##  8 DCFS          0.0226          0.0105 
    ##  9 DEJU          0.00671         0.00194
    ## 10 DELA          0.0194          0.00995
    ## # … with 37 more rows
…
